^C:\USERS\ZARKOV\SOURCE\REPOS\SNAKEGAME\SNAKEGAME\DEBUG\SNAKEGAME.OBJ
C:\USERS\ZARKOV\SOURCE\REPOS\SNAKEGAME\DEBUG\SNAKEGAME.ILK
C:\USERS\ZARKOV\SOURCE\REPOS\SNAKEGAME\DEBUG\SNAKEGAME.EXE
C:\USERS\ZARKOV\SOURCE\REPOS\SNAKEGAME\DEBUG\SNAKEGAME.PDB
